
QBXU,CHS CONTAINER HANDEL GMBH,BREMEN,Germany,View
QCGU,QUEST CAPITAL GROUP LLC,NORTH KANSAS CITY, MO 64116,United States,View
QIBU,UNITED ARAB SHIPPING CO. SAG,SAFAT,Kuwait,View
QIMU,TCS TRANS S.L.,BARCELONA,Spain,View
QNLU,QATAR NAVIGATION (QSC),DOHA,Qatar,View
QNNU,UNITED ARAB SHIPPING CO. SAG,SAFAT,Kuwait,View
QPCU,QUIMPAC DE COLOMBIA,CALI,Colombia,View
QSSU,PT. INDONESIA TSINGSHAN STAINLESS STEEL,JAKARTA,Indonesia,View
QUBU,QUBE PORTS PTY LTD,SYDNEY,Australia,View