

ZAPU,GRUPA ZAKLADY AZOTOWE PULAWY SA,PULAWY,Poland,View
ZCLU,ZIM INTEGRATED SHIPPING SERVICES LTD,HAIFA,Israel,View
ZCSU,ZIM INTEGRATED SHIPPING SERVICES LTD,HAIFA,Israel,View
ZDSU,TELESPAZIO FRANCE,TOULOUSE,France,View
ZEEU,ZEENNI S TRADING AGENCY,TRIPOLI,Lebanon,View
ZETU,ZETA SYSTEM SRL,MATERA,Italy,View
ZGRU,ZGROUP SAC,LIMA 36,Peru,View
ZGXU,FPG RAFFLES PTE LTD,SINGAPORE,Singapore,View
ZHFU,YANTAI ZHONG HAN FERRY CO LTD,YANTAI,China,View
ZHRU,F.U.H TRANS-STAR S.C ZBIGNIEW, HALINA ROKOSZ,OCIEKA,Poland,View
ZHWU,TIANJIN ZHAOHUA PIONEER CO,LTD,TIANJIN,China,View
ZIMU,ZIM INTEGRATED SHIPPING SERVICES LTD,HAIFA,Israel,View
ZIPU,TANK SERVICE INC,HOUSTON, TX 77231 0417,United States,View
ZITU,SAFIM SRL,GENOVA,Italy,View
ZMOU,ZIM INTEGRATED SHIPPING SERVICES LTD,HAIFA,Israel,View
ZMSU,ZEPPELIN MOBILE SYSTEME GMBH,MECKENBEUREN,Germany,View
ZPLU,KONRAD ZIPPEL SPEDITEUR GMBH & CO. KG,HAMBURG,Germany,View
ZSEU,ZHENG SUN ENGINEERING CO,LTD,KAOHSIUNG CITY,Taiwan (China),View
ZSTU,JSC SIBUR-TRANS,MOSCOW,Russian Federation,View
ZTKU,NIJMAN/ZEETANK INT TANKTRANSPORTEN BV,Spijkenisse,Netherlands,View
ZUZU,CARGOSTORE WORLDWIDE TRADING LIMITED,LONDON SW19 7QD,United Kingdom,View
ZWFU,ZIM WORLD FREIGHT PVT LTD,MUMBAI,India,View
ZWIU,V+A ZWISSIG SA,SIERRE,Switzerland,View
ZYMU,ZIJDERHAND MOERKAPELLE BV,MOERKAPELLE,Netherlands,View
