51009756495	C:\Users\gus\Documents\111gitlab\yip\container-no-detector\result_picture\2017-11-03-10-21-46-387-1.jpg	2017-11-03 10:21:46:379
ICLU438297I	C:\Users\gus\Documents\111gitlab\yip\container-no-detector\result_picture\2017-11-03-10-22-56-106-1.jpg	2017-11-03 10:22:56:098
ICLU43BZ9TE	C:\Users\gus\Documents\111gitlab\yip\container-no-detector\result_picture\2017-11-03-10-22-56-605-1.jpg	2017-11-03 10:22:56:598
ICLU43182977IE	C:\Users\gus\Documents\111gitlab\yip\container-no-detector\result_picture\2017-11-03-10-22-56-868-1.jpg	2017-11-03 10:22:56:860
TCLU438297E	C:\Users\gus\Documents\111gitlab\yip\container-no-detector\result_picture\2017-11-03-10-22-57-754-1.jpg	2017-11-03 10:22:57:747
TCLU438297	C:\Users\gus\Documents\111gitlab\yip\container-no-detector\result_picture\2017-11-03-10-22-58-239-1.jpg	2017-11-03 10:22:58:232
TCLU438297	C:\Users\gus\Documents\111gitlab\yip\container-no-detector\result_picture\2017-11-03-10-22-58-490-1.jpg	2017-11-03 10:22:58:482
TCLU438297	C:\Users\gus\Documents\111gitlab\yip\container-no-detector\result_picture\2017-11-03-10-22-58-728-1.jpg	2017-11-03 10:22:58:720
ICLU438297	C:\Users\gus\Documents\111gitlab\yip\container-no-detector\result_picture\2017-11-03-10-22-58-956-1.jpg	2017-11-03 10:22:58:949
51009756495	C:\Users\gus\Documents\111gitlab\yip\container-no-detector\result_picture\2017-11-03-10-24-06-204-1.jpg	2017-11-03 10:24:06:196
ICIUJ9393M	C:\Users\gus\Documents\111gitlab\yip\container-no-detector\result_picture\2017-11-03-10-25-57-577-1.jpg	2017-11-03 10:25:57:568
51009756495	C:\Users\gus\Documents\111gitlab\yip\container-no-detector\result_picture\2017-11-03-10-36-50-560-1.jpg	2017-11-03 10:36:50:552
ICLU438297I	C:\Users\gus\Documents\111gitlab\yip\container-no-detector\result_picture\2017-11-03-10-38-17-431-1.jpg	2017-11-03 10:38:17:424
ICLU43BZ9TE	C:\Users\gus\Documents\111gitlab\yip\container-no-detector\result_picture\2017-11-03-10-38-17-974-1.jpg	2017-11-03 10:38:17:967
ICLU43182977IE	C:\Users\gus\Documents\111gitlab\yip\container-no-detector\result_picture\2017-11-03-10-38-18-259-1.jpg	2017-11-03 10:38:18:251
TCLU438297E	C:\Users\gus\Documents\111gitlab\yip\container-no-detector\result_picture\2017-11-03-10-38-19-215-1.jpg	2017-11-03 10:38:19:208
TCLU438297	C:\Users\gus\Documents\111gitlab\yip\container-no-detector\result_picture\2017-11-03-10-38-19-752-1.jpg	2017-11-03 10:38:19:742
TCLU438297	C:\Users\gus\Documents\111gitlab\yip\container-no-detector\result_picture\2017-11-03-10-38-20-018-1.jpg	2017-11-03 10:38:20:009
TCLU438297	C:\Users\gus\Documents\111gitlab\yip\container-no-detector\result_picture\2017-11-03-10-38-20-281-1.jpg	2017-11-03 10:38:20:273
ICLU438297	C:\Users\gus\Documents\111gitlab\yip\container-no-detector\result_picture\2017-11-03-10-38-20-532-1.jpg	2017-11-03 10:38:20:524
ICIUJ9393M	C:\Users\gus\Documents\111gitlab\yip\container-no-detector\result_picture\2017-11-03-10-39-24-986-1.jpg	2017-11-03 10:39:24:978
UUVTEEUZQBHHMS	C:\Users\gus\Documents\111gitlab\yip\container-no-detector\result_picture\2017-11-03-15-14-58-790-1.jpg	2017-11-03 15:14:58:775
UUVTEEUZQBHHMS	C:\Users\gus\Documents\111gitlab\yip\container-no-detector\result_picture\2017-11-03-15-15-52-820-1.jpg	2017-11-03 15:15:52:820
NYKU3516025	C:\Users\gus\Documents\111gitlab\yip\container-no-detector\result_picture\2017-11-03-15-19-31-226-1.jpg	2017-11-03 15:19:31:211
NDKU36408441	C:\Users\gus\Documents\111gitlab\yip\container-no-detector\result_picture\2017-11-03-15-23-21-332-1.jpg	2017-11-03 15:23:21:310
NVKU364084I	C:\Users\gus\Documents\111gitlab\yip\container-no-detector\result_picture\2017-11-03-15-23-24-357-1.jpg	2017-11-03 15:23:24:342
NVKU364084I	C:\Users\gus\Documents\111gitlab\yip\container-no-detector\result_picture\2017-11-03-15-23-26-042-1.jpg	2017-11-03 15:23:26:026
WISMEHMAN	C:\Users\gus\Documents\111gitlab\yip\container-no-detector\result_picture\2017-11-03-15-24-36-080-1.jpg	2017-11-03 15:24:36:064
WISHEIMN	C:\Users\gus\Documents\111gitlab\yip\container-no-detector\result_picture\2017-11-03-15-24-36-853-1.jpg	2017-11-03 15:24:36:853
HHIEUSQHWUH	C:\Users\gus\Documents\111gitlab\yip\container-no-detector\result_picture\2017-11-03-15-27-53-725-1.jpg	2017-11-03 15:27:53:709
